…
`swemaps2` contain simple features (sf) objects that make it easy to
create maps over Sweden.

You can use these basic sf-objects to combine with data from SCB (using
the [pxweb package](http://ropengov.github.io/pxweb/)) or Kolada (using
the [rKolada package](https://github.com/lchansson/rKolada)).

``` r
county
#> Simple feature collection with 21 features and 2 fields
#> Geometry type: MULTIPOLYGON
#> Dimension:     XY
#> Bounding box:  xmin: 277247.6 ymin: 6133891 xmax: 917271.4 ymax: 7669870
#> Projected CRS: SWEREF99 TM
#> # A tibble: 21 × 3
#>    ln_kod ln_namn                                                       geometry
#>    <chr>  <chr>                                               <MULTIPOLYGON [m]>
#>  1 01     Stockholms    (((627791.9 6569168, 630226.6 6572122, 631290.7 6570364…
#>  2 03     Uppsala       (((633496.1 6610607, 632895.2 6609547, 637045.2 6601261…
#>  3 04     Södermanlands (((555102.6 6536546, 549484.9 6540210, 548399.8 6543139…
#>  4 05     Östergötlands (((496094.6 6443310, 493792.5 6438720, 485582.7 6436950…
#>  5 06     Jönköpings    (((498999.7 6421417, 500271.5 6417129, 504533.5 6412062…
#>  6 07     Kronobergs    (((504095.5 6338410, 505156.2 6340178, 509340.4 6339948…
#>  7 08     Kalmar        (((544656.8 6325506, 540241.9 6327303, 537963 6332166, …
#>  8 09     Gotlands      (((706606.9 6415775, 709951.4 6417040, 712659 6417968, …
#>  9 10     Blekinge      (((473443 6228381, 472071.2 6231138, 468594.2 6230492, …
#> 10 12     Skåne         (((420135.8 6254456, 425339.2 6256685, 430337.3 6256572…
#> # … with 11 more rows
```
…
