Combine swemaps2 with data from SCB • swemaps2
…
# Download data 
px_utb <- pxweb_get(url = "http://api.scb.se/OV0104/v1/doris/sv/ssd/UF/UF0506/UtbBefRegionR",
                    query = pxweb_query_list)

# Convert to data.frame and aggregate
utb <- as.data.frame(px_utb, 
                     column.name.type = "text",
                     variable.value.type = "text") %>% 
  janitor::clean_names() %>% 
  group_by(region) %>% 
  summarise(higher_education = sum(befolkning_16_95_ar))

utb
#> # A tibble: 21 × 2
#>    region          higher_education
#>    <chr>                      <dbl>
#>  1 Blekinge län               22886
#>  2 Dalarnas län               36441
#>  3 Gotlands län                9045
#>  4 Gävleborgs län             35449
#>  5 Hallands län               51583
#>  6 Jämtlands län              19169
#>  7 Jönköpings län             48436
#>  8 Kalmar län                 32271
#>  9 Kronobergs län             28758
#> 10 Norrbottens län            35211
#> # … with 11 more rows

Unfortunately, we do not get the region codes from SCB. But if we remove the " län from the region names we can join it by name:

utb <- utb %>% 
  mutate(region = str_replace(region, " län", "")) 

county <- left_join(county, utb, by = c("ln_namn" = "region"))

county
#> Simple feature collection with 21 features and 3 fields
#> Geometry type: MULTIPOLYGON
#> Dimension:     XY
#> Bounding box:  xmin: 277247.6 ymin: 6133891 xmax: 917271.4 ymax: 7669870
#> Projected CRS: SWEREF99 TM
#> # A tibble: 21 × 4
#>    ln_kod ln_namn                                      geometry higher_education
#>    <chr>  <chr>                              <MULTIPOLYGON [m]>            <dbl>
#>  1 01     Stockholms    (((627791.9 6569168, 630226.6 6572122,…           549126
#>  2 03     Uppsala       (((633496.1 6610607, 632895.2 6609547,…            75554
#>  3 04     Södermanlands (((555102.6 6536546, 549484.9 6540210,…            37857
#>  4 05     Östergötlands (((496094.6 6443310, 493792.5 6438720,…            76071
#>  5 06     Jönköpings    (((498999.7 6421417, 500271.5 6417129,…            48436
#>  6 07     Kronobergs    (((504095.5 6338410, 505156.2 6340178,…            28758
#>  7 08     Kalmar        (((544656.8 6325506, 540241.9 6327303,…            32271
#>  8 09     Gotlands      (((706606.9 6415775, 709951.4 6417040,…             9045
#>  9 10     Blekinge      (((473443 6228381, 472071.2 6231138, 4…            22886
#> 10 12     Skåne         (((420135.8 6254456, 425339.2 6256685,…           247020
#> # … with 11 more rows
…
If we join population data we can

county <- county %>% 
  left_join(population, by = c("ln_namn" = "region")) %>% 
  mutate(p_higher_education = round(higher_education / population, 2))

county
#> Simple feature collection with 21 features and 5 fields
#> Geometry type: MULTIPOLYGON
#> Dimension:     XY
#> Bounding box:  xmin: 277247.6 ymin: 6133891 xmax: 917271.4 ymax: 7669870
#> Projected CRS: SWEREF99 TM
#> # A tibble: 21 × 6
#>    ln_kod ln_namn                           geometry higher_education population
#>  * <chr>  <chr>                   <MULTIPOLYGON [m]>            <dbl>      <dbl>
#>  1 01     Stockholms    (((627791.9 6569168, 630226…           549126    2391841
#>  2 03     Uppsala       (((633496.1 6610607, 632895…            75554     388076
#>  3 04     Södermanlands (((555102.6 6536546, 549484…            37857     299329
#>  4 05     Östergötlands (((496094.6 6443310, 493792…            76071     467276
#>  5 06     Jönköpings    (((498999.7 6421417, 500271…            48436     364953
#>  6 07     Kronobergs    (((504095.5 6338410, 505156…            28758     202247
#>  7 08     Kalmar        (((544656.8 6325506, 540241…            32271     246033
#>  8 09     Gotlands      (((706606.9 6415775, 709951…             9045      60050
#>  9 10     Blekinge      (((473443 6228381, 472071.2…            22886     159227
#> 10 12     Skåne         (((420135.8 6254456, 425339…           247020    1388910
#> # … with 11 more rows, and 1 more variable: p_higher_education <dbl>
…
